{
  "images" : [
    {
      "idiom" : "universal",
      "filename" : "phone-symbol-of-an-auricular-inside-a-circle copy.png",
      "scale" : "1x"
    },
    {
      "idiom" : "universal",
      "filename" : "phone-symbol-of-an-auricular-inside-a-circle copy@2x.png",
      "scale" : "2x"
    },
    {
      "idiom" : "universal",
      "filename" : "phone-symbol-of-an-auricular-inside-a-circle copy@3x.png",
      "scale" : "3x"
    }
  ],
  "info" : {
    "version" : 1,
    "author" : "xcode"
  }
}